{
  "configMethod": {
    "label": "Configutation Method",
    "options": [
      {
        "id": 1,
        "name": "Standard"
      },
      {
        "id": 2,
        "name": "Dynamic"
      }
    ]
  },
  "deviceType": {
    "options": [
      {
        "assetLocationId": "1",
        "assetTypeId": "4",
        "assetNameId": "A401",
        "name": "Pressure Sensor",
        "id": "2"
      },
      {
        "assetLocationId": "1",
        "assetTypeId": "4",
        "assetNameId": "A401",
        "name": "Temperature Sensor",
        "id": "1"
      },
      {
        "assetLocationId": "1",
        "assetTypeId": "4",
        "assetNameId": "A401",
        "name": "Vibration Sensor",
        "id": "4"
      },
      {
        "assetLocationId": "1",
        "assetTypeId": "4",
        "assetNameId": "A401",
        "name": "Actuator",
        "id": "5"
      },
      {
        "assetLocationId": "2",
        "assetTypeId": "4",
        "assetNameId": "A402",
        "name": "Temperature Sensor",
        "id": "1"
      },
      {
        "assetLocationId": "2",
        "assetTypeId": "4",
        "assetNameId": "A402",
        "name": "Pressure Sensor",
        "id": "2"
      },
      {
        "assetLocationId": "2",
        "assetTypeId": "4",
        "assetNameId": "A402",
        "name": "Vibration Sensor",
        "id": "4"
      },
      {
        "assetLocationId": "6",
        "assetTypeId": "4",
        "assetNameId": "A403",
        "name": "Temperature Sensor",
        "id": "1"
      },
      {
        "assetLocationId": "6",
        "assetTypeId": "4",
        "assetNameId": "A403",
        "name": "Pressure Sensor",
        "id": "2"
      },
      {
        "assetLocationId": "6",
        "assetTypeId": "4",
        "assetNameId": "A403",
        "name": "Actuator",
        "id": "5"
      },
      {
        "assetLocationId": "6",
        "assetTypeId": "4",
        "assetNameId": "A403",
        "name": "Vibration Sensor",
        "id": "4"
      },
      {
        "assetLocationId": "1",
        "assetTypeId": "2",
        "assetNameId": "A201",
        "name": "Temperature Sensor",
        "id": "1"
      },
      {
        "assetLocationId": "1",
        "assetTypeId": "4",
        "assetNameId": "A404",
        "name": "Vibration Sensor",
        "id": "4"
      },
      {
        "assetLocationId": "1",
        "assetTypeId": "4",
        "assetNameId": "A404",
        "name": "Pressure Sensor",
        "id": "2"
      },
      {
        "assetLocationId": "1",
        "assetTypeId": "4",
        "assetNameId": "A404",
        "name": "Temperature Sensor",
        "id": "1"
      },
      {
        "assetLocationId": "1",
        "assetTypeId": "2",
        "assetNameId": "A201",
        "name": "Vibration Sensor",
        "id": "4"
      },
      {
        "assetLocationId": "1",
        "assetTypeId": "2",
        "assetNameId": "A201",
        "name": "Pressure Sensor",
        "id": "2"
      },
      {
        "assetLocationId": "1",
        "assetTypeId": "2",
        "assetNameId": "A201",
        "name": "Actuator",
        "id": "5"
      },
      {
        "assetLocationId": "2",
        "assetTypeId": "2",
        "assetNameId": "A202",
        "name": "Pressure Sensor",
        "id": "2"
      },
      {
        "assetLocationId": "2",
        "assetTypeId": "2",
        "assetNameId": "A202",
        "name": "Temperature Sensor",
        "id": "1"
      },
      {
        "assetLocationId": "6",
        "assetTypeId": "2",
        "assetNameId": "A206",
        "name": "Temperature Sensor",
        "id": "1"
      },
      {
        "assetLocationId": "6",
        "assetTypeId": "2",
        "assetNameId": "A206",
        "name": "Pressure Sensor",
        "id": "2"
      },
      {
        "assetLocationId": "6",
        "assetTypeId": "2",
        "assetNameId": "A206",
        "name": "Vibration Sensor",
        "id": "4"
      },
      {
        "assetLocationId": "6",
        "assetTypeId": "2",
        "assetNameId": "A206",
        "name": "Actuator",
        "id": "5"
      },
      {
        "assetLocationId": "2",
        "assetTypeId": "2",
        "assetNameId": "A202",
        "name": "Vibration Sensor",
        "id": "4"
      },
      {
        "assetLocationId": "9",
        "assetTypeId": "2",
        "assetNameId": "A209",
        "name": "Temperature Sensor",
        "id": "1"
      },
      {
        "assetLocationId": "9",
        "assetTypeId": "2",
        "assetNameId": "A209",
        "name": "Vibration Sensor",
        "id": "4"
      },
      {
        "assetLocationId": "1",
        "assetTypeId": "1",
        "assetNameId": "A101",
        "name": "Temperature Sensor",
        "id": "1"
      },
      {
        "assetLocationId": "9",
        "assetTypeId": "2",
        "assetNameId": "A209",
        "name": "Pressure Sensor",
        "id": "2"
      },
      {
        "assetLocationId": "1",
        "assetTypeId": "1",
        "assetNameId": "A101",
        "name": "Pressure Sensor",
        "id": "2"
      },
      {
        "assetLocationId": "1",
        "assetTypeId": "1",
        "assetNameId": "A101",
        "name": "Vibration Sensor",
        "id": "4"
      },
      {
        "assetLocationId": "2",
        "assetTypeId": "1",
        "assetNameId": "A102",
        "name": "Pressure Sensor",
        "id": "2"
      },
      {
        "assetLocationId": "2",
        "assetTypeId": "1",
        "assetNameId": "A102",
        "name": "Vibration Sensor",
        "id": "4"
      },
      {
        "assetLocationId": "2",
        "assetTypeId": "1",
        "assetNameId": "A102",
        "name": "Temperature Sensor",
        "id": "1"
      },
      {
        "assetLocationId": "6",
        "assetTypeId": "1",
        "assetNameId": "A106",
        "name": "Temperature Sensor",
        "id": "1"
      },
      {
        "assetLocationId": "6",
        "assetTypeId": "1",
        "assetNameId": "A106",
        "name": "Pressure Sensor",
        "id": "2"
      },
      {
        "assetLocationId": "6",
        "assetTypeId": "1",
        "assetNameId": "A106",
        "name": "Vibration Sensor",
        "id": "4"
      },
      {
        "assetLocationId": "6",
        "assetTypeId": "1",
        "assetNameId": "A106",
        "name": "Actuator",
        "id": "5"
      },
      {
        "assetLocationId": "9",
        "assetTypeId": "1",
        "assetNameId": "A109",
        "name": "Temperature Sensor",
        "id": "1"
      },
      {
        "assetLocationId": "1",
        "assetTypeId": "1",
        "assetNameId": "A101",
        "name": "Actuator",
        "id": "5"
      },
      {
        "assetLocationId": "9",
        "assetTypeId": "1",
        "assetNameId": "A109",
        "name": "Vibration Sensor",
        "id": "4"
      },
      {
        "assetLocationId": "9",
        "assetTypeId": "1",
        "assetNameId": "A109",
        "name": "Pressure Sensor",
        "id": "2"
      }
    ],
    "label": "Device Type"
  },
  "assetLocation": {
    "options": [
      { "assetTypeId": "4", "name": "Marcellus", "id": "1" },
      { "assetTypeId": "4", "name": "Mississippi Lime", "id": "2" },
      { "assetTypeId": "4", "name": "Barnett", "id": "6" },
      { "assetTypeId": "2", "name": "Marcellus", "id": "1" },
      { "assetTypeId": "2", "name": "Mississippi Lime", "id": "2" },
      { "assetTypeId": "2", "name": "Barnett", "id": "6" },
      { "assetTypeId": "2", "name": "Haynesville", "id": "9" },
      { "assetTypeId": "1", "name": "Marcellus", "id": "1" },
      { "assetTypeId": "1", "name": "Mississippi Lime", "id": "2" },
      { "assetTypeId": "1", "name": "Barnett", "id": "6" },
      { "assetTypeId": "1", "name": "Haynesville", "id": "9" }
    ],
    "label": "Asset Location"
  },
  "assetName": {
    "options": [
      {
        "assetLocationId": "1",
        "assetTypeId": "4",
        "name": "VRC-CNG401",
        "id": "A401"
      },
      {
        "assetLocationId": "2",
        "assetTypeId": "4",
        "name": "ARROW-VRS-2-402",
        "id": "A402"
      },
      {
        "assetLocationId": "6",
        "assetTypeId": "4",
        "name": "VRC-CNG403",
        "id": "A403"
      },
      {
        "assetLocationId": "1",
        "assetTypeId": "2",
        "name": "A32-201",
        "id": "A201"
      },
      {
        "assetLocationId": "1",
        "assetTypeId": "4",
        "name": "ARROW-VRS-2-404",
        "id": "A404"
      },
      {
        "assetLocationId": "2",
        "assetTypeId": "2",
        "name": "L-795-202",
        "id": "A202"
      },
      {
        "assetLocationId": "6",
        "assetTypeId": "2",
        "name": "C-66-206",
        "id": "A206"
      },
      {
        "assetLocationId": "9",
        "assetTypeId": "2",
        "name": "C-96-209",
        "id": "A209"
      },
      {
        "assetLocationId": "1",
        "assetTypeId": "1",
        "name": "Arrow-430-101",
        "id": "A101"
      },
      {
        "assetLocationId": "2",
        "assetTypeId": "1",
        "name": "Arrow-500-102",
        "id": "A102"
      },
      {
        "assetLocationId": "6",
        "assetTypeId": "1",
        "name": "Arrow-1200-106",
        "id": "A106"
      },
      {
        "assetLocationId": "9",
        "assetTypeId": "1",
        "name": "Arrow-510-109",
        "id": "A109"
      }
    ],
    "label": "Asset Name"
  },
  "action": { "options": ["get", "set"], "label": "Action" },
  "attribute": {
    "options": [
      {
        "name": "Pressure",
        "id": "201",
        "dataType": "Double",
        "deviceId": 1,
        "metrics": [
          { "name": "lowerBound", "value": "5.0" },
          { "name": "upperBound", "value": "25.0" },
          { "name": "meanValue", "value": "15.0" }
        ]
      },
      {
        "name": "Temperature",
        "id": "101",
        "dataType": "Double",
        "metrics": [
          { "name": "lowerBound", "value": "20.0" },
          { "name": "upperBound", "value": "60.0" },
          { "name": "meanValue", "value": "40.0" }
        ]
      },
      {
        "name": "Vibration",
        "dataType": "Double",
        "id": "401",
        "metrics": [
          { "name": "lowerBound", "value": "40.0" },
          { "name": "upperBound", "value": "140.0" },
          { "name": "meanValue", "value": "90.0" }
        ]
      },
      {
        "name": "Acurator",
        "dataType": "Double",
        "id": "501",
        "metrics": [
          { "name": "lowerBound", "value": "5.0" },
          { "name": "upperBound", "value": "20.0" },
          { "name": "meanValue", "value": "15.0" }
        ]
      },
      {
        "name": "Temperature",
        "dataType": "Double",
        "id": "102",
        "metrics": [
          { "name": "lowerBound", "value": "10.0" },
          { "name": "upperBound", "value": "60.0" },
          { "name": "meanValue", "value": "35.0" }
        ]
      },
      {
        "name": "Pressure",
        "id": "202",
        "dataType": "Double",
        "metrics": [
          { "name": "lowerBound", "value": "5.0" },
          { "name": "upperBound", "value": "25.0" },
          { "name": "meanValue", "value": "15.0" }
        ]
      },
      {
        "name": "Vibration",
        "id": "402",
        "dataType": "Double",
        "metrics": [
          { "name": "lowerBound", "value": "40.0" },
          { "name": "upperBound", "value": "140.0" },
          { "name": "meanValue", "value": "90.0" }
        ]
      },
      {
        "name": "Temperature",
        "id": "103",
        "metrics": [
          { "name": "lowerBound", "value": "20.0" },
          { "name": "upperBound", "value": "40.0" },
          { "name": "meanValue", "value": "30.0" }
        ]
      },
      {
        "name": "Pressure",
        "id": "203",
        "dataType": "Double",
        "metrics": [
          { "name": "lowerBound", "value": "5.0" },
          { "name": "upperBound", "value": "25.0" },
          { "name": "meanValue", "value": "15.0" }
        ]
      },
      {
        "name": "Acurator",
        "id": "502",
        "metrics": [
          { "name": "lowerBound", "value": "5.0" },
          { "name": "upperBound", "value": "20.0" },
          { "name": "meanValue", "value": "15.0" }
        ]
      },
      {
        "name": "Vibration",
        "id": "403",
        "dataType": "Double",
        "metrics": [
          { "name": "lowerBound", "value": "40.0" },
          { "name": "upperBound", "value": "140.0" },
          { "name": "meanValue", "value": "90.0" }
        ]
      },
      {
        "name": "Temperature",
        "id": "211",
        "metrics": [
          { "name": "lowerBound", "value": "30.0" },
          { "name": "upperBound", "value": "100.0" },
          { "name": "meanValue", "value": "65.0" }
        ]
      },
      {
        "name": "Vibration",
        "id": "404",
        "dataType": "Double",
        "metrics": [
          { "name": "lowerBound", "value": "40.0" },
          { "name": "upperBound", "value": "140.0" },
          { "name": "meanValue", "value": "90.0" }
        ]
      },
      {
        "name": "Pressure",
        "id": "204",
        "dataType": "Double",
        "metrics": [
          { "name": "lowerBound", "value": "5.0" },
          { "name": "upperBound", "value": "25.0" },
          { "name": "meanValue", "value": "15.0" }
        ]
      },
      {
        "name": "Temperature",
        "id": "104",
        "metrics": [
          { "name": "lowerBound", "value": "20.0" },
          { "name": "upperBound", "value": "100.0" },
          { "name": "meanValue", "value": "60.0" }
        ]
      },
      {
        "name": "Vibration",
        "id": "214",
        "dataType": "Double",
        "metrics": [
          { "name": "lowerBound", "value": "60.0" },
          { "name": "upperBound", "value": "120.0" },
          { "name": "meanValue", "value": "90.0" }
        ]
      },
      {
        "name": "Pressure",
        "id": "212",
        "dataType": "Double",
        "metrics": [
          { "name": "lowerBound", "value": "30.0" },
          { "name": "upperBound", "value": "50.0" },
          { "name": "meanValue", "value": "40.0" }
        ]
      },
      {
        "name": "Acurator",
        "id": "215",
        "metrics": [
          { "name": "lowerBound", "value": "5.0" },
          { "name": "upperBound", "value": "20.0" },
          { "name": "meanValue", "value": "15.0" }
        ]
      },
      {
        "name": "Pressure",
        "id": "222",
        "dataType": "Double",
        "metrics": [
          { "name": "lowerBound", "value": "30.0" },
          { "name": "upperBound", "value": "50.0" },
          { "name": "meanValue", "value": "40.0" }
        ]
      },
      {
        "name": "Temperature",
        "id": "221",
        "metrics": [
          { "name": "lowerBound", "value": "30.0" },
          { "name": "upperBound", "value": "100.0" },
          { "name": "meanValue", "value": "65.0" }
        ]
      },
      {
        "name": "Temperature",
        "id": "261",
        "metrics": [
          { "name": "lowerBound", "value": "70.0" },
          { "name": "upperBound", "value": "180.0" },
          { "name": "meanValue", "value": "125.0" }
        ]
      },
      {
        "name": "Pressure",
        "id": "262",
        "dataType": "Double",
        "metrics": [
          { "name": "lowerBound", "value": "30.0" },
          { "name": "upperBound", "value": "50.0" },
          { "name": "meanValue", "value": "40.0" }
        ]
      },
      {
        "name": "Vibration",
        "id": "264",
        "dataType": "Double",
        "metrics": [
          { "name": "lowerBound", "value": "60.0" },
          { "name": "upperBound", "value": "120.0" },
          { "name": "meanValue", "value": "90.0" }
        ]
      },
      {
        "name": "Acurator",
        "id": "265",
        "metrics": [
          { "name": "lowerBound", "value": "5.0" },
          { "name": "upperBound", "value": "20.0" },
          { "name": "meanValue", "value": "15.0" }
        ]
      },
      {
        "name": "Vibration",
        "id": "224",
        "dataType": "Double",
        "metrics": [
          { "name": "lowerBound", "value": "60.0" },
          { "name": "upperBound", "value": "120.0" },
          { "name": "meanValue", "value": "90.0" }
        ]
      },
      {
        "name": "Temperature",
        "id": "291",
        "metrics": [
          { "name": "lowerBound", "value": "40.0" },
          { "name": "upperBound", "value": "120.0" },
          { "name": "meanValue", "value": "80.0" }
        ]
      },
      {
        "name": "Vibration",
        "id": "294",
        "dataType": "Double",
        "metrics": [
          { "name": "lowerBound", "value": "60.0" },
          { "name": "upperBound", "value": "120.0" },
          { "name": "meanValue", "value": "90.0" }
        ]
      },
      {
        "name": "Temperature",
        "id": "111",
        "metrics": [
          { "name": "lowerBound", "value": "40.0" },
          { "name": "upperBound", "value": "100.0" },
          { "name": "meanValue", "value": "70.0" }
        ]
      },
      {
        "name": "Pressure",
        "id": "292",
        "dataType": "Double",
        "metrics": [
          { "name": "lowerBound", "value": "30.0" },
          { "name": "upperBound", "value": "50.0" },
          { "name": "meanValue", "value": "40.0" }
        ]
      },
      {
        "name": "Pressure",
        "id": "112",
        "dataType": "Double",
        "metrics": [
          { "name": "lowerBound", "value": "35.0" },
          { "name": "upperBound", "value": "50.0" },
          { "name": "meanValue", "value": "42.0" }
        ]
      },
      {
        "name": "Vibration",
        "id": "114",
        "dataType": "Double",
        "metrics": [
          { "name": "lowerBound", "value": "60.0" },
          { "name": "upperBound", "value": "90.0" },
          { "name": "meanValue", "value": "75.0" }
        ]
      },
      {
        "name": "Pressure",
        "id": "122",
        "dataType": "Double",
        "metrics": [
          { "name": "lowerBound", "value": "30.0" },
          { "name": "upperBound", "value": "50.0" },
          { "name": "meanValue", "value": "40.0" }
        ]
      },
      {
        "name": "Vibration",
        "id": "124",
        "dataType": "Double",
        "metrics": [
          { "name": "lowerBound", "value": "60.0" },
          { "name": "upperBound", "value": "120.0" },
          { "name": "meanValue", "value": "90.0" }
        ]
      },
      {
        "name": "Temperature",
        "id": "121",
        "metrics": [
          { "name": "lowerBound", "value": "30.0" },
          { "name": "upperBound", "value": "100.0" },
          { "name": "meanValue", "value": "65.0" }
        ]
      },
      {
        "name": "Temperature",
        "id": "161",
        "metrics": [
          { "name": "lowerBound", "value": "70.0" },
          { "name": "upperBound", "value": "180.0" },
          { "name": "meanValue", "value": "125.0" }
        ]
      },
      {
        "name": "Pressure",
        "id": "162",
        "dataType": "Double",
        "metrics": [
          { "name": "lowerBound", "value": "30.0" },
          { "name": "upperBound", "value": "50.0" },
          { "name": "meanValue", "value": "40.0" }
        ]
      },
      {
        "name": "Vibration",
        "id": "164",
        "dataType": "Double",
        "metrics": [
          { "name": "lowerBound", "value": "60.0" },
          { "name": "upperBound", "value": "120.0" },
          { "name": "meanValue", "value": "90.0" }
        ]
      },
      {
        "name": "Acurator",
        "id": "165",
        "metrics": [
          { "name": "lowerBound", "value": "5.0" },
          { "name": "upperBound", "value": "20.0" },
          { "name": "meanValue", "value": "15.0" }
        ]
      },
      {
        "name": "Temperature",
        "id": "191",
        "metrics": [
          { "name": "lowerBound", "value": "40.0" },
          { "name": "upperBound", "value": "120.0" },
          { "name": "meanValue", "value": "80.0" }
        ]
      },
      {
        "name": "Acurator",
        "id": "115",
        "metrics": [
          { "name": "lowerBound", "value": "5.0" },
          { "name": "upperBound", "value": "20.0" },
          { "name": "meanValue", "value": "15.0" }
        ]
      },
      {
        "name": "Vibration",
        "id": "194",
        "dataType": "Double",
        "metrics": [
          { "name": "lowerBound", "value": "60.0" },
          { "name": "upperBound", "value": "120.0" },
          { "name": "meanValue", "value": "90.0" }
        ]
      },
      {
        "name": "Pressure",
        "id": "192",
        "dataType": "Double",
        "metrics": [
          { "name": "lowerBound", "value": "30.0" },
          { "name": "upperBound", "value": "50.0" },
          { "name": "meanValue", "value": "40.0" }
        ]
      }
    ],
    "label": "From"
  },
  "to": { "options": [], "label": "To" },
  "deviceName": {
    "options": [
      {
        "assetLocationId": "1",
        "deviceTypeId": "2",
        "assetTypeId": "4",
        "assetNameId": "A401",
        "name": "LoRangePressureSensor501",
        "id": "201"
      },
      {
        "assetLocationId": "1",
        "deviceTypeId": "1",
        "assetTypeId": "4",
        "assetNameId": "A401",
        "name": "LoRangeTempSensor101",
        "id": "101"
      },
      {
        "assetLocationId": "1",
        "deviceTypeId": "4",
        "assetTypeId": "4",
        "assetNameId": "A401",
        "name": "PrecisionVibrationSensor401",
        "id": "401"
      },
      {
        "assetLocationId": "1",
        "deviceTypeId": "5",
        "assetTypeId": "4",
        "assetNameId": "A401",
        "name": "ValveActuator501",
        "id": "501"
      },
      {
        "assetLocationId": "2",
        "deviceTypeId": "1",
        "assetTypeId": "4",
        "assetNameId": "A402",
        "name": "LoRangeTempSensor102",
        "id": "102"
      },
      {
        "assetLocationId": "2",
        "deviceTypeId": "2",
        "assetTypeId": "4",
        "assetNameId": "A402",
        "name": "LoRangePressureSensor202",
        "id": "202"
      },
      {
        "assetLocationId": "2",
        "deviceTypeId": "4",
        "assetTypeId": "4",
        "assetNameId": "A402",
        "name": "PrecisionVibrationSensor402",
        "id": "402"
      },
      {
        "assetLocationId": "6",
        "deviceTypeId": "1",
        "assetTypeId": "4",
        "assetNameId": "A403",
        "name": "LoRangeTempSensor103",
        "id": "103"
      },
      {
        "assetLocationId": "6",
        "deviceTypeId": "2",
        "assetTypeId": "4",
        "assetNameId": "A403",
        "name": "LoRangePressureSensor203",
        "id": "203"
      },
      {
        "assetLocationId": "6",
        "deviceTypeId": "5",
        "assetTypeId": "4",
        "assetNameId": "A403",
        "name": "ValveActuator502",
        "id": "502"
      },
      {
        "assetLocationId": "6",
        "deviceTypeId": "4",
        "assetTypeId": "4",
        "assetNameId": "A403",
        "name": "PrecisionVibrationSensor403",
        "id": "403"
      },
      {
        "assetLocationId": "1",
        "deviceTypeId": "1",
        "assetTypeId": "2",
        "assetNameId": "A201",
        "name": "HighRangeTempSensor211",
        "id": "211"
      },
      {
        "assetLocationId": "1",
        "deviceTypeId": "4",
        "assetTypeId": "4",
        "assetNameId": "A404",
        "name": "PrecisionVibrationSensor404",
        "id": "404"
      },
      {
        "assetLocationId": "1",
        "deviceTypeId": "2",
        "assetTypeId": "4",
        "assetNameId": "A404",
        "name": "LoRangePressureSensor204",
        "id": "204"
      },
      {
        "assetLocationId": "1",
        "deviceTypeId": "1",
        "assetTypeId": "4",
        "assetNameId": "A404",
        "name": "LoRangeTempSensor104",
        "id": "104"
      },
      {
        "assetLocationId": "1",
        "deviceTypeId": "4",
        "assetTypeId": "2",
        "assetNameId": "A201",
        "name": "PrecisionVibrationSensor214",
        "id": "214"
      },
      {
        "assetLocationId": "1",
        "deviceTypeId": "2",
        "assetTypeId": "2",
        "assetNameId": "A201",
        "name": "HighRangePressureSensor212",
        "id": "212"
      },
      {
        "assetLocationId": "1",
        "deviceTypeId": "5",
        "assetTypeId": "2",
        "assetNameId": "A201",
        "name": "ValveActuator215",
        "id": "215"
      },
      {
        "assetLocationId": "2",
        "deviceTypeId": "2",
        "assetTypeId": "2",
        "assetNameId": "A202",
        "name": "HighRangePressureSensor222",
        "id": "222"
      },
      {
        "assetLocationId": "2",
        "deviceTypeId": "1",
        "assetTypeId": "2",
        "assetNameId": "A202",
        "name": "HighRangeTempSensor221",
        "id": "221"
      },
      {
        "assetLocationId": "6",
        "deviceTypeId": "1",
        "assetTypeId": "2",
        "assetNameId": "A206",
        "name": "HighRangeTempSensor261",
        "id": "261"
      },
      {
        "assetLocationId": "6",
        "deviceTypeId": "2",
        "assetTypeId": "2",
        "assetNameId": "A206",
        "name": "HighRangePressureSensor262",
        "id": "262"
      },
      {
        "assetLocationId": "6",
        "deviceTypeId": "4",
        "assetTypeId": "2",
        "assetNameId": "A206",
        "name": "PrecisionVibrationSensor264",
        "id": "264"
      },
      {
        "assetLocationId": "6",
        "deviceTypeId": "5",
        "assetTypeId": "2",
        "assetNameId": "A206",
        "name": "ValveActuator265",
        "id": "265"
      },
      {
        "assetLocationId": "2",
        "deviceTypeId": "4",
        "assetTypeId": "2",
        "assetNameId": "A202",
        "name": "PrecisionVibrationSensor224",
        "id": "224"
      },
      {
        "assetLocationId": "9",
        "deviceTypeId": "1",
        "assetTypeId": "2",
        "assetNameId": "A209",
        "name": "HighRangeTempSensor291",
        "id": "291"
      },
      {
        "assetLocationId": "9",
        "deviceTypeId": "4",
        "assetTypeId": "2",
        "assetNameId": "A209",
        "name": "PrecisionVibrationSensor294",
        "id": "294"
      },
      {
        "assetLocationId": "1",
        "deviceTypeId": "1",
        "assetTypeId": "1",
        "assetNameId": "A101",
        "name": "MidRangeTempSensor111",
        "id": "111"
      },
      {
        "assetLocationId": "9",
        "deviceTypeId": "2",
        "assetTypeId": "2",
        "assetNameId": "A209",
        "name": "HighRangePressureSensor292",
        "id": "292"
      },
      {
        "assetLocationId": "1",
        "deviceTypeId": "2",
        "assetTypeId": "1",
        "assetNameId": "A101",
        "name": "HighRangePressureSensor112",
        "id": "112"
      },
      {
        "assetLocationId": "1",
        "deviceTypeId": "4",
        "assetTypeId": "1",
        "assetNameId": "A101",
        "name": "PrecisionVibrationSensor114",
        "id": "114"
      },
      {
        "assetLocationId": "2",
        "deviceTypeId": "2",
        "assetTypeId": "1",
        "assetNameId": "A102",
        "name": "MidRangePressureSensor122",
        "id": "122"
      },
      {
        "assetLocationId": "2",
        "deviceTypeId": "4",
        "assetTypeId": "1",
        "assetNameId": "A102",
        "name": "PrecisionVibrationSensor124",
        "id": "124"
      },
      {
        "assetLocationId": "2",
        "deviceTypeId": "1",
        "assetTypeId": "1",
        "assetNameId": "A102",
        "name": "MidRangeTempSensor121",
        "id": "121"
      },
      {
        "assetLocationId": "6",
        "deviceTypeId": "1",
        "assetTypeId": "1",
        "assetNameId": "A106",
        "name": "MidRangeTempSensor161",
        "id": "161"
      },
      {
        "assetLocationId": "6",
        "deviceTypeId": "2",
        "assetTypeId": "1",
        "assetNameId": "A106",
        "name": "MidRangePressureSensor162",
        "id": "162"
      },
      {
        "assetLocationId": "6",
        "deviceTypeId": "4",
        "assetTypeId": "1",
        "assetNameId": "A106",
        "name": "MidVibrationSensor164",
        "id": "164"
      },
      {
        "assetLocationId": "6",
        "deviceTypeId": "5",
        "assetTypeId": "1",
        "assetNameId": "A106",
        "name": "ValveActuator165",
        "id": "165"
      },
      {
        "assetLocationId": "9",
        "deviceTypeId": "1",
        "assetTypeId": "1",
        "assetNameId": "A109",
        "name": "MidRangeTempSensor191",
        "id": "191"
      },
      {
        "assetLocationId": "1",
        "deviceTypeId": "5",
        "assetTypeId": "1",
        "assetNameId": "A101",
        "name": "ValveActuator115",
        "id": "115"
      },
      {
        "assetLocationId": "9",
        "deviceTypeId": "4",
        "assetTypeId": "1",
        "assetNameId": "A109",
        "name": "PrecisionVibrationSensor194",
        "id": "194"
      },
      {
        "assetLocationId": "9",
        "deviceTypeId": "2",
        "assetTypeId": "1",
        "assetNameId": "A109",
        "name": "MidRangePressureSensor192",
        "id": "192"
      }
    ],
    "label": "Device Name"
  },
  "assetType": {
    "options": [
      { "name": "Compressor", "id": 4 },
      { "name": "Pumps", "id": 1 },
      { "name": "Flowline", "id": 3 },
      { "name": "Motors", "id": 2 },
      { "name": "Cooler", "id": 5 }
    ],
    "label": "Asset Type"
  }
}
