[
    {
        "id" : 1,
        "name" : "Petrol Plant Design" 
    },
    {
        "id" : 2,
        "name" : "Preseure Quality Check" 
    },
    {
        "id" : 3,
        "name" : "Gas Pipeline Hyderabad Design" 
    },
    {
        "id" : 4,
        "name" : "Calculate gas wastage" 
    },
    {
        "id" : 5,
        "name" : "dummy" 
    }
]